…
The 95% confidence interval is -4.587031 to 8.253697. The mean
difference is 1.83334.

``` r
# data to tidy format -----------------------------------------------------

fish_long <- 
  pivot_longer(fish, speciesUpstream:speciesDownstream,
               names_to = "location",
               values_to = "species") %>% 
  mutate(location = str_remove(location, c("species"))) %>% 
  print()
```

    ## # A tibble: 24 x 3
    ##    tributary location   species
    ##    <chr>     <chr>        <dbl>
    ##  1 Içá       Upstream        14
    ##  2 Içá       Downstream      19
    ##  3 Jutaí     Upstream        11
    ##  4 Jutaí     Downstream      18
    ##  5 Japurá    Upstream         8
    ##  6 Japurá    Downstream       8
    ##  7 Coari     Upstream         5
    ##  8 Coari     Downstream       7
    ##  9 Purus     Upstream        10
    ## 10 Purus     Downstream      16
    ## # … with 14 more rows
…
